{
    "estudiantes": [
    {
        "Cedula":"1317513123",
        "Apellido":"Chavez Paz", 
        "Nombres":"Jose Bautista",
        "Semestre": "Quinto",
        "Paralelo": "B"},
    {
        "Cedula":"131457845",
        "Apellido":"Lopez Lopez", 
        "Nombres":"Alicia Susana",
        "Semestre": "Sexto",
        "Paralelo": "A"},
    {
        "Cedula":"131457845",
        "Apellido":"Santos Palma", 
        "Nombres":"Joselyn Yamileth",
        "Semestre": "Tercero",
        "Paralelo": "B"},
    {
        "Cedula":"131457845",
        "Apellido":"Arauz Lopez", 
        "Nombres":"Ernesto Cesar",
        "Semestre": "Cuarto",
        "Paralelo": "A"},
        {
        "Cedula":"131457845",
        "Apellido":"Choez Gutierrez", 
        "Nombres":"Miranda Patricia",
        "Semestre": "Tercero",
        "Paralelo": "A"},
        {
        "Cedula":"131457845",
        "Apellido":"Murillo Laje", 
        "Nombres":"Raul Ernesto",
        "Semestre": "Quinto",
        "Paralelo": "A"},
    {
        "Cedula":"131457845",
        "Apellido":"Chavez Paz", 
        "Nombres":"Gabriela Marisela",
        "Semestre": "Sexto",
        "Paralelo": "B"},
    {
        "Cedula":"131457845",
        "Apellido":"Ponce Ponce", 
        "Nombres":"Mabel Estefania",
        "Semestre": "Tercero",
        "Paralelo": "A"},
    {
        "Cedula":"131457845",
        "Apellido":"Ramirez Pico", 
        "Nombres":"Bryan Ernesto",
        "Semestre": "Cuarto",
        "Paralelo": "A"},
    {
        "Cedula":"131457845",
        "Apellido":"Arauz Veliz", 
        "Nombres":"Yulexi Monserrat",
        "Semestre": "Quinto",
        "Paralelo": "A"}
    ]
}
